Assignment 3/ripple_carry_counter/ripple_counter.vcd
$date
	Mon Feb  6 13:39:50 2023
$end
$version
	Icarus Verilog
$end
$timescale
	1s
$end
$scope module ripple_counter_tb $end
$var wire 4 ! q [3:0] $end
$var reg 1 " clk $end
$var reg 1 # m $end
$var reg 1 $ reset $end
$scope module uut $end
$var wire 1 " clk $end
$var wire 1 % clk_new $end
$var wire 1 # m $end
$var wire 1 $ reset $end
$var wire 4 & q [3:0] $end
$scope begin genblk1[0] $end
$scope begin genblk2 $end
$scope module tff $end
$var wire 1 " clk $end
$var wire 1 ' d $end
$var wire 1 $ reset $end
$var wire 1 ( q $end
$scope module dff $end
$var wire 1 " clk $end
$var wire 1 ' d $end
$var wire 1 $ reset $end
$var reg 1 ( q $end
$upscope $end
$upscope $end
$upscope $end
$upscope $end
$scope begin genblk1[1] $end
$scope begin genblk3 $end
$scope module tff $end
$var wire 1 % clk $end
$var wire 1 ) d $end
$var wire 1 $ reset $end
$var wire 1 * q $end
$scope module dff $end
$var wire 1 % clk $end
$var wire 1 ) d $end
$var wire 1 $ reset $end
$var reg 1 * q $end
$upscope $end
$upscope $end
$upscope $end
$upscope $end
$scope begin genblk1[2] $end
$scope begin genblk3 $end
$scope module tff $end
$var wire 1 % clk $end
$var wire 1 + d $end
$var wire 1 $ reset $end
$var wire 1 , q $end
$scope module dff $end
$var wire 1 % clk $end
$var wire 1 + d $end
$var wire 1 $ reset $end
$var reg 1 , q $end
$upscope $end
$upscope $end
$upscope $end
$upscope $end
$scope begin genblk1[3] $end
$scope begin genblk3 $end
$scope module tff $end
$var wire 1 % clk $end
$var wire 1 - d $end
$var wire 1 $ reset $end
$var wire 1 . q $end
$scope module dff $end
$var wire 1 % clk $end
$var wire 1 - d $end
$var wire 1 $ reset $end
$var reg 1 . q $end
$upscope $end
$upscope $end
$upscope $end
$upscope $end
$upscope $end
$upscope $end
$enddefinitions $end
#0
$dumpvars
0.
1-
0,
1+
0*
1)
0(
1'
b0 &
1%
1$
1#
0"
b0 !
$end
#10
1"
0$
#20
1-
1+
1)
0.
0,
0*
x%
0'
b1 !
b1 &
1(
0"
#30
1"
#40
1%
1'
b0 !
b0 &
0(
0"
#50
1"
#60
1-
1+
1)
0.
0,
0*
x%
0'
b1 !
b1 &
1(
0"
#70
1"
#80
1%
1'
b0 !
b0 &
0(
0"
#90
1"
#100
1-
1+
1)
0.
0,
0*
x%
0'
b1 !
b1 &
1(
0"
#110
1"
#120
1%
1'
b0 !
b0 &
0(
0"
#130
1"
#140
1-
1+
1)
0.
0,
0*
x%
0'
b1 !
b1 &
1(
0"
#150
0-
0+
0)
1.
1,
b1111 !
b1111 &
1*
1%
1"
0#
#160
0)
0+
0-
1*
1,
1.
x%
1'
b1110 !
b1110 &
0(
0"
#170
1"
#180
1%
0'
b1111 !
b1111 &
1(
0"
#190
1"
#200
0)
0+
0-
1*
1,
1.
x%
1'
b1110 !
b1110 &
0(
0"
#210
1"
#220
1%
0'
b1111 !
b1111 &
1(
0"
#230
1"
#240
0)
0+
0-
1*
1,
1.
x%
1'
b1110 !
b1110 &
0(
0"
#250
1"
#260
1%
0'
b1111 !
b1111 &
1(
0"
#270
1"
#280
0)
0+
0-
1*
1,
1.
x%
1'
b1110 !
b1110 &
0(
0"
#290
1"
#300
1%
0'
b1111 !
b1111 &
1(
0"
#310
1"
#320
0)
0+
0-
#330

1.
x%
1'
b1110 !
b1110 &
0(
0"
